[
  {
    "_id": "5b6ab73392b52501632b9f5c",
    "title": "The Last Ones",
    "artist": "Jahzzar",
    "album": "Smoke Factory",
    "track": 1,
    "year": 2012,
    "genre": 40,
    "url": "http://localhost:3000/Jahzzar_-_01_-_The_last_ones.mp3",
    "comment": ""
  },
  {
    "_id": "5b6ab73392b52501632b9f5d",
    "title": "DD Groove",
    "artist": "Kevin Macleod",
    "album": "Blues Sampler",
    "track": 4,
    "year": 2011,
    "genre": 0,
    "url": "http://localhost:3000/Kevin_MacLeod_-_04_-_DD_Groove.mp3",
    "comment": ""
  }
]
